%YAML 1.1
%TAG !u! tag:unity3d.com,2011:
--- !u!114 &11400000
MonoBehaviour:
  m_ObjectHideFlags: 0
  m_CorrespondingSourceObject: {fileID: 0}
  m_PrefabInstance: {fileID: 0}
  m_PrefabAsset: {fileID: 0}
  m_GameObject: {fileID: 0}
  m_Enabled: 1
  m_EditorHideFlags: 0
  m_Script: {fileID: 11500000, guid: c729a0b77aed0cd4386c77a690147605, type: 3}
  m_Name: Tasks data base
  m_EditorClassIdentifier: 
  taskObjectsEasy:
  - {fileID: 7186191378533305374, guid: 03d8c2cbd497a3840a03dbf02f968701, type: 3}
  - {fileID: 7883553801945944879, guid: 71e2b167389b6994b809d57bef1dd1ba, type: 3}
  - {fileID: 3793669963756748809, guid: 3d24a2d2863550d4d922092397d6dc32, type: 3}
  - {fileID: 5137071298703126233, guid: 6669b8b124cbca144ba80001d210dfba, type: 3}
  - {fileID: 8727714380719212108, guid: 903a4dcadcadbf743ad85bcc60ac6b17, type: 3}
  - {fileID: 4817826582863210494, guid: fcd84d02a5577504ab82b23302494278, type: 3}
  - {fileID: 2223700137187160437, guid: 6aa5c1c5e90942148956cd8b23028f89, type: 3}
  - {fileID: 281841813977278010, guid: 6f97023d37bd3bc499f4c49c1843e65b, type: 3}
  - {fileID: 4375711185032598380, guid: 3c14dd6dc3c3b8f41b7ca0266c34735e, type: 3}
  taskObjectsHard:
  - {fileID: 5111531466739023518, guid: c0daa9481e1a0a049ac846cf59644122, type: 3}
  - {fileID: 7186191378533305374, guid: 8abb1b8fbef13b441ae2bb13f8e4fd2f, type: 3}
  - {fileID: 8727714380719212108, guid: 9729d71eccf56f54c9a7e76fc4258d18, type: 3}
  - {fileID: 5158380830541263483, guid: b898b39cc4f06904fa1b2467e80a9d83, type: 3}
  - {fileID: 5810501973267338162, guid: d2f14717dfa994e4f967ae35cd95b908, type: 3}
